{
    "extension_description": {
        "message": "Modifier facilement le nom de l'agent utilisateur du navigateur (User-Agent string)"
    },
    "options_entries_caption": {
        "message": "Liste des agents utilisateur"
    },
    "popup_item_options": {
        "message": "Préférences…"
    },
    "icon_title_enabled": {
        "message": "Activé"
    },
    "icon_title_disabled": {
        "message": "Désactivé"
    },
    "option_badge_text": {
        "message": "Faire apparaître l'agent utilisateur actif par un badge sur l'icône ?",
        "description": "Text of checkbox option to show/hide the two to four letter abbreviations displayed ontop of the browser action icon"
    },
    "option_random_jitter": {
        "message": "Variance du mode aléatoire",
        "description": "Text of numeric option (0-100) for setting by how many per-cent the random-interval value should (on avarage) be varied"
    },
    "options_entries_reset": {
        "message": "Rétablir les valeurs par défaut",
        "description": "Options page link for loading the entries defaults"
    },
    "options_entries_reset_undo_text": {
        "message": "Valeurs par défaut rétablies",
        "description": "Text of popup that is shown after the reset link has been clicked"
    },
    "options_entries_reset_undo_button": {
        "message": "Annuler la réinitialisation",
        "description": "Label of button for undoing a reset (displayed below the text that asserts that the options have just been reset)"
    },
    "options_entries_switch_text": {
        "message": "Passer en mode texte",
        "description": "Options page link for switching from table to text mode"
    },
    "options_entries_switch_table": {
        "message": "Passer en mode tableau",
        "description": "Options page link for switching from text to table mode"
    },
    "options_entries_heading_label": {
        "message": "Libellé",
        "description": "Options page table editor heading for the column with user-facing User-Agent-String labels"
    },
    "options_entries_heading_category": {
        "message": "Catégorie",
        "description": "Options page table editor heading for the column with general category of the given User-Agent-String"
    },
    "options_entries_heading_string": {
        "message": "Chaine de caractères",
        "description": "Options page table editor heading for the column with the actual server-reported User-Agent-Strings"
    },
    "useragent_category_desktop": {
        "message": "Desktop",
        "description": "Default category label for browsers on desktop devices"
    },
    "useragent_category_mobile": {
        "message": "Mobile",
        "description": "Default category label for browsers on mobile devices"
    },
    "useragent_category_bot": {
        "message": "Robot",
        "description": "Default category label for search engine bots"
    },
    "useragent_category_other": {
        "message": "Autre",
        "description": "Default category label for unclassified client software"
    },
    "icon_title_random": {
        "message": "Mode aléatoire",
        "description": "Text displayed in the browser action icon tooltip when the User-Agent header is choosen at random"
    },
    "popup_item_random": {
        "message": "Activer le mode aléatoire",
        "description": "The label of the menu item for enabling time-based User-Agent randomization"
    },
    "popup_item_random_categories": {
        "message": "Catégories :",
        "description": "The section header of the categories selection of random selection mode"
    },
    "popup_item_random_interval_mode_restart": {
        "message": "Seulement au démarrage",
        "description": "The label of the menu item for enabling the time-based User-Agent randomization only on extension and browser startup"
    },
    "popup_item_random_interval_mode_timed": {
        "message": "À intervalle régulier :",
        "description": "The label of the menu item for enabling the time-based User-Agent randomization at regular intervals"
    },
    "popup_item_random_interval_unit_minutes": {
        "message": "Minute(s)",
        "description": "A User-Agent randomization time interval"
    },
    "popup_item_random_interval_unit_hours": {
        "message": "Heure(s)",
        "description": "A User-Agent randomization time interval"
    },
    "popup_item_random_interval_unit_days": {
        "message": "Jour(s)",
        "description": "A User-Agent randomization time interval"
    },
    "popup_item_default": {
        "message": "Valeur par défaut",
        "description": "The label of the menu item that disables the User-Agent-Overrider and lets the browser send its default User-Agent-String"
    },
    "popup_item_override_tpl": {
        "message": "«$HOSTNAME$»",
        "description": "Label of an individual selectable override domain"
    },
    "options_entries_heading_enabled": {
        "message": "Activé",
        "description": "Options page table editor heading for the column allowing to enabled or disable items"
    },
    "icon_title_override_enabled": {
        "message": "Activé par contournement",
        "description": "Text displayed in the browser action icon tooltip when request processing is being done because of an override being set"
    },
    "icon_title_override_disabled": {
        "message": "Désactivé par contournement",
        "description": "Text displayed in the browser action icon tooltip when no request processing is being done because of an override being set"
    },
    "popup_item_override": {
        "message": "Forcer pour ce domaine",
        "description": "Label of the checkbox that can be used to switch from setting the global User-Agent string to a per-site value"
    },
    "option_popup_override_size": {
        "message": "Forcer la taille du menu/popup",
        "description": "Text of checkbox option to force the extension popup to a static/larger size than it would normally be according to the browser defaults (note that this also has a description attached)"
    },
    "option_popup_override_size_description": {
        "message": "Activer si le menu/popup est trop petit sur votre appareil",
        "description": "Description text of checkbox option to force the extension popup to a static/larger size than it would normally be according to the browser defaults"
    }
}
